…
  slice_lst
}

And now let’s call it!

make_slices()[[1]]

## # A tibble: 7,498 x 2
## # Groups:   artist_name [7,498]
##    artist_name                               data
##    <chr>                          <list<df[,13]>>
##  1 Motion City Soundtrack                [2 × 13]
##  2 Gene Chandler                         [1 × 13]
##  3 Paul Horn                             [1 × 13]
##  4 Ronnie Earl & the Broadcasters        [1 × 13]
##  5 Dorothy Ashby                         [2 × 13]
##  6 Barleyjuice                           [1 × 13]
##  7 Vertigo Angels                        [1 × 13]
##  8 Wir Sind Helden                       [1 × 13]
##  9 Simon & Garfunkel                     [1 × 13]
## 10 Rabia Sorda                           [2 × 13]
## # … with 7,488 more rows
…
  slice_lst
}

Notice the generalizations of the first three calls. Since city needed to be filtered of any NA columns, we applied it to any column that comes in. The get function allows us to pass a string to a function with tidyverse pipelines in them, learned from this post. While using this call, the name of the grouping column was set to the string get(feature[[i]]), which is not only ugly, but not helpful. This post on Stack Overflow shows how we can plug in generic baseR functions into tidyverse pipelines! Using the technique, I was able to leverage colnames.

make_slices(singer_locations, list("artist_name", "city", "year"))[[1]]

## # A tibble: 7,498 x 2
## # Groups:   get(char_features[[1]]) [7,498]
##    artist_name                               data
##    <chr>                          <list<df[,14]>>
##  1 Motion City Soundtrack                [2 × 14]
##  2 Gene Chandler                         [1 × 14]
##  3 Paul Horn                             [1 × 14]
##  4 Ronnie Earl & the Broadcasters        [1 × 14]
##  5 Dorothy Ashby                         [2 × 14]
##  6 Barleyjuice                           [1 × 14]
##  7 Vertigo Angels                        [1 × 14]
##  8 Wir Sind Helden                       [1 × 14]
##  9 Simon & Garfunkel                     [1 × 14]
## 10 Rabia Sorda                           [2 × 14]
## # … with 7,488 more rows
…
